<?xml version="1.0" encoding="UTF-8"?>
<CustomTab xmlns="http://soap.sforce.com/2006/04/metadata">
    <label>Admin Screen</label>
    <mobileReady>false</mobileReady>
    <motif>Custom50: Big top</motif>
    <page>crontest</page>
</CustomTab>
