"CMR Name","CMR #","Printed By","PubCo #","Trans","Trans Ver","IIS Number","ISS Date","To","From","Dir #","Dir Ver","Pub Date","Life","Inv Type","Clinet #","Gross Amnt","ADJ Amnt","Tax%","Tax Amnt","Commission%","Commission Amnt","Net Amount","Total Gross","Total ADJ","Total Tax","Total Commission","Pay This Amnt" 
"CSC CMR 2","2012","Pubco 3","0909","I","V0001","091920121300203909","2013-09-19 00:00:00","C","P","032663","Armstrong-Rising Sun, MD 1311","2013-09-13 00:00:00","12","IR","3457","125.00","0.00","0.00","0.00","20.00%","25.00","100.00","475.00","0.00","0.00","95.00","380.00"
"CSC CMR 2","2012","Pubco 3","0909","I","V0001","091920121300203909","2013-09-19 00:00:00","C","P","032663","Armstrong-Rising Sun, MD 1311","2013-11-01 00:00:00","12","IR","8765","350.00","0.00","0.00","0.00","20.00%","70.00","280.00","475.00","0.00","0.00","95.00","380.00"
