"Trans","Trans Ver","IIS Number","ISS Date","Printed By","Source Dir #","Source Dir Version","To","From","Dir #","Dir Ver","State","Dir Name","Pub Date","Life","CMR #","Clinet #","NAT","Client Name","NAT Client ID","PG#","Line #","UDAC","BAS","SPINS","Gross Amnt","Code","ADJ Amnt","Advertising Data" 
"I","V0001","092072101300238909","2013-09-20 00:00:00","Pubco 3","032663","Armstrong-Rising Sun, MD 1311","P","C","032663","Armstrong-Rising Sun, MD 1311","MD","Armstrong-Rising Sun, MD","2013-11-01 00:00:00","12","7210","8765","New","Northwest Airlines","null","","425","TBLN","","","450","","0","ROMULUS TERMINAL"
"I","V0001","092072101300238909","2013-09-20 00:00:00","Pubco 3","032663","Armstrong-Rising Sun, MD 1311","P","C","032663","null","MD","Armstrong-Rising Sun, MD","null","12","7210","8765","New","Northwest Airlines","null","","450","","","","0","","0","671 MERRIMAN"
