"Trans","Trans Ver","IIS Number","ISS Date","Printed By","Source Dir #","Source Dir Version","To","From","Dir #","Dir Ver","State","Dir Name","Pub Date","Life","CMR #","Clinet #","NAT","Client Name","NAT Client ID","PG#","Line #","UDAC","BAS","SPINS","Gross Amnt","Code","ADJ Amnt","Advertising Data" 
"OLI2","V1","091215831300186011","2013-09-12 00:00:00","Pubco 4","103360","London Area, KY 1509","P","C","103360","London Area, KY 1509","KY","London Area, KY","2013-09-08 00:00:00","12","1583","3457","N","Cardinals","123412","","53","DHC","","","350","","0","Technician"
"OLI2","V1","091215831300186011","2013-09-12 00:00:00","Pubco 4","103360","London Area, KY 1509","P","C","103360","null","KY","London Area, KY","null","12","1583","3457","N","Cardinals","123412","","54","","T","S","0","","0","Gardner"
