"Trans","Trans Ver","IIS Number","ISS Date","Printed By","Source Dir #","Source Dir Version","To","From","Dir #","Dir Ver","State","Dir Name","Pub Date","Life","CMR #","Clinet #","NAT","Client Name","NAT Client ID","PG#","Line #","UDAC","BAS","SPINS","Gross Amnt","Code","ADJ Amnt","Advertising Data" 
"R","V0002","091320121300200909","2013-09-13 00:00:00","Pubco 3","032663","Armstrong-Rising Sun, MD 1311","P","C","032663","Armstrong-Rising Sun, MD 1311","MD","Armstrong-Rising Sun, MD","2013-09-13 00:00:00","12","2012","3457","New","Cardinals","null","","00425","TM","","","125","","0","MERRIMAN TERMINAL"
"R","V0002","091320121300200909","2013-09-13 00:00:00","Pubco 3","032663","Armstrong-Rising Sun, MD 1311","P","C","032663","null","MD","Armstrong-Rising Sun, MD","null","12","2012","3457","New","Cardinals","null","","500","","","","0","","0","881 234-5600"
"R","V0002","091320121300200909","2013-09-13 00:00:00","Pubco 3","032663","Armstrong-Rising Sun, MD 1311","P","C","032663","null","MD","Armstrong-Rising Sun, MD","null","12","2012","3457","New","Cardinals","null","","450","","","","0","","0","671 MERRIMAN"
