H20130315USBank-STL                                                             
D00010001000000132420220010051904000000000001324000000000002648                 
C00010002000000132426527041300000016401446060000006387                          
D00020001000002866720221136730351000000000028667000000000028667                 
C00020002000002866708300010800000030232866740000561061                          
D00020003000017968020221136515162000000000179680000000000179680                 
C00020004000017968004100103900000004586214540000018401                          
D00020005000000832520221136129948000000000008325000000000008325                 
C00020006000000832504121044800000000248258760000002973                          
D00020007000000563520221136167388000000000005635000000000005635                 
C00020008000000563504120055500000010110025320000002934                          
D00020009000000785020221126899877000000000007850000000000007850                 
C00020010000000785004300009600000011365558190000005897                          
D00020011000000674020220010000768000000000013480000000000006740                 
C00020012000000674004330682600000071100980920000005245                          
D00020013000000578020221133098612000000000005780000000000005565                 
C00020014000000578005311252100000012929132310000001049                          
D00020015000000577220221136218245000000000014044000000000005734                 
C00020016000000577204411509000000011697059600000015926                          
D00020017000000224520220010000908000000000002245000000000004490                 
C00020018000000224504330682600000073000341180000001722                          
D00020019000001416520221125099136000000000014165000000000014165                 
C00020020000001416503607615000000061013559970000007895                          
D00020021000013713020220010012687000000000137130000000000068565                 
C00020022000013713006110720100000010000034810000005062                          
D00020023000000762020220010049437000000000019870000000000019870                 
C00020024000000762010491391200000023002775370000002293                          
D00020025000000868220221131346584000000000008682000000000004340                 
C00020026000000868210490058500000000003091300000008988                          
D00020027000000227020220010025888000000000002270000000000002270                 
C00020028000000227009140873400000000006560170000009483                          
D00020029000008853120220010005396000000000088531000000000088531                 
C00020030000008853110400085400000000056004480000038980                          
D00020031000000210520221131210841000000000002105000000000002105                 
C00020032000000210510491013500000000003017770000042629                          
D00020033000000257520220010029116000000000002575000000000002575                 
C00020034000000257506111341500000051425658560000017238                          
D00020035000000321520221123486832000000000003215000000000003215                 
C00020036000000321506111284300000000000049780000019397                          
D00020037000001011420221136148508000000000010114000000000010114                 
C00020038000001011406111284300000000000519930000005407                          
D00020039000000160520220010017862000000000001605000000000001605                 
C00020040000000160506420858900000000013605770000009151                          
D00020041000000398020220010004013000000000007960000000000003980                 
C00020042000000398006120175400000020486024250000004543                          
D00020043000001197520221124871008000000000011975000000000011975                 
C00020044000001197524337421800000035660065020000008078                          
D00020045000005971020221125118616000000000059710000000000059710                 
C00020046000005971006310551500000005001480010000008001                          
D00020047000019280020221136028297000000000192800000000000096400                 
C00020048000019280005320160700000051210689170000012740                          
D00020049000000116020220010003890000000000001160000000000001160                 
C00020050000000116002230365900000001922424150000002415                          
D00020051000000153520221131145792000000000003070000000000001535                 
C00020052000000153504331013900000000122022670000011047                          
D00020053000000317020221126921489000000000003170000000000003170                 
C00020054000000317008290402700000000002485000000052884                          
D00020055000000305020220010027429000000000003050000000000003050                 
C00020056000000305021127444700000000013365330000002020                          
D00020057000000500520221136135154000000000005005000000000005005                 
C00020058000000500506110178600000000003282880000009145                          
D00020059000001086220221124881037000000000010862000000000005390                 
C00020060000001086206120468300000000040030590000003030                          
D00020061000000357520220010003746000000000003575000000000003575                 
C00020062000000357506100005200000003001318470000004136                          
D00020063000001700020220010024494000000000017000000000000017000                 
C00020064000001700006121268800000000005434700000007589                          
D00020065000005617020221136443385000000000056170000000000009130                 
C00020066000005617004400003700000001000191950000018850                          
D00020067000000242520220010001149000000000002425000000000002665                 
C00020068000000242504330971300000000008438490000003849                          
D00020069000000248020220010023896000000000002480000000000002480                 
C00020070000000248004331149700000000030117820000017100                          
D00020071000000553020220010001212000000000005530000000000002765                 
C00020072000000553022237044000000009847047200000004053                          
D00020073000001045220221125131099000000000021059000000000010450                 
C00020074000001045204330685500000000120027950000042373                          
D00020075000001085020221136124784000000000010850000000000010850                 
C00020076000001085004400003700000008018040360000008601                          
D00020077000000849020220010016504000000000008490000000000008490                 
C00020078000000849006110720100000010042863140000005757                          
D00020079000002865220221144270297000000000028652000000000028652                 
C00020080000002865206110464400000000004358830000003104                          
D00020081000000661520221127010862000000000006615000000000006615                 
C00020082000000661506110720100000010007941470000003208                          
D00020083000003001020220010005140000000000020660000000000039450                 
C00020084000003001010491079500000000062626790000010773                          
D00020085000001264020221131407387000000000025280000000000012640                 
C00020086000001264010491079500000000207307300000002088                          
D00020087000000295220221136146345000000000002952000000000002952                 
C00020088000000295208420144300000000134246680000001327                          
D00020089000000219020221139621456000000000002190000000000002190                 
C00020090000000219011491222000000000330080190000008403                          
D00020091000012698020221132558317000000000126980000000000126980                 
C00020092000012698006220401900000000160146720000019078                          
D00020093000009799120220010023294000000000097991000000000097991                 
C00020094000009799105320811800000000000272350000007204                          
D00020095000000276020221134436742000000000002760000000000002760                 
C00020096000000276006110137500000062000014490000007546                          
D00020097000000465020221126771272000000000004650000000000002325                 
C00020098000000465006130334800000000010189440000010519                          
D00020099000000241520221134551966000000000002415000000000002415                 
C00020100000000241526117093100000010540270850000003854                          
D00020101000001908020221124878101000000000019080000000000019080                 
C00020102000001908022237044000000006231903540000004358                          
D00020103000003664020221132881421000000000036640000000000018320                 
C00020104000003664024337421800000016160067460000010627                          
D00020105000001701520220010040465000000000017015000000000017015                 
C00020106000001701504331809200000000040622790000014563                          
D00020107000000815920220010020737000000000008159000000000008159                 
C00020108000000815924337421800000012360573270000004592                          
D00020109000003030520221132884550000000000030305000000000030305                 
C00020110000003030504330682600000073002360770000001142                          
D00020111000001670520221131161359000000000016705000000000016705                 
C00020112000001670508290098200000000007494190000029822                          
D00020113000000213020221123564177000000000002130000000000002130                 
C00020114000000213010490134800000000001104690000003333                          
D00020115000000473020220010031023000000000019284000000000004730                 
C00020116000000473030498255200000000001639010000001063                          
D00020117000000986020221131529603000000000009860000000000002235                 
C00020118000000986008390310800000000020267160000001573                          
D00020119000000402020220010002057000000000001340000000000003990                 
C00020120000000402027497038000000005959019150100107229                          
D00020121000000227520221132885644000000000004550000000000002275                 
C00020122000000227508390110000000000080894690000002422                          
D00020123000000513220220010007841000000000005132000000000005132                 
C00020124000000513204121298300000000061009030000038483                          
D00020125000002162520221136217621000000000021625000000000021625                 
C00020126000002162504410130500000000001728810000052481                          
D00020127000000248020220010025692000000000002480000000000002480                 
C00020128000000248022237044000000087390290910000012358                          
D00020129000001016020220010005629000000000010160000000000010160                 
C00020130000001016004210119000000073807008020000619952                          
D00020131000000860020221131108709000000000008600000000000008600                 
C00020132000000860008390792600000000000012600000030012                          
D00020133000000663520221134489421000000000006635000000000006635                 
C00020134000000663508300010800000031136267160000024388                          
D00020135000000298020220010002513000000000002980000000000002980                 
C00020136000000298004217448600000051851966920000300281                          
D00020137000001701020221136206295000000000017010000000000017010                 
C00020138000001701004210829000000000004171810000009851                          
D00020139000000176020221123495137000000000001760000000000001760                 
C00020140000000176011100002500000001390030830001081055                          
D00020141000000178020221132070997000000000001780000000000001780                 
C00020142000000178008390364500000000007633010000006646                          
D00020143000000623120221135883640000000000006231000000000006235                 
C00020144000000623104220773500000075505369940000002196                          
D00020145000000391520220010026155000000000003915000000000003915                 
C00020146000000391510400005800000079503697450000111524                          
D00020147000000103020221126954353000000000001030000000000001030                 
C00020148000000103010400005800000011270124260000004196                          
D00020149000002117520221126962735000000000021175000000000021225                 
C00020150000002117506111278800000032999935860000388380                          
D00020151000001239520221126964630000000000012395000000000012395                 
C00020152000001239510490167800000000100674770000201023                          
D00020153000000293520220010004633000000000002935000000000002935                 
C00020154000000293507200009600000018522891470005017781                          
D00020155000000479520221135897384000000000004795000000000004795                 
C00020156000000479504210416800000000600211510000165700                          
D00020157000006275520221134478396000000000062755000000000062755                 
C00020158000006275508390068000000051814103120000028829                          
D00020159000001043020221136015194000000000010430000000000005215                 
C00020160000001043004210144600000000750766160000006616                          
D00020161000000396020221134482362000000000003960000000000003960                 
C00020162000000396004210014600000000103900140000006933                          
D00020163000000307520221135883660000000000003075000000000003075                 
C00020164000000307504210014600000000103900140000006932                          
D00020165000000227520221136580083000000000002275000000000002275                 
C00020166000000227504220500900000000000290170000108885                          
D00020167000000716220201135001898000000000028648000000000007162                 
C00020168000000716212130101500000000430151330000010163                          
D00020169000009734320201135015903000000000097343000000000097343                 
C00020170000009734312130101500000000200123740000121612                          
D00020171000001925720201124287373000000000038514000000000019257                 
C00020172000001925712130177200000000110483280000002577                          
D00020173000001473920201135000788000000000029478000000000014739                 
C00020174000001473912130157800000000000558200000004000                          
D00020175000000715620201143495410000000000007156000000000007156                 
C00020176000000715612130101500000000211345460000004452                          
D00020177000000542020220010025718000000000005420000000000005420                 
C00020178000000542003130830200000000010039950000011705                          
D00020179000001532020221139849006000000000015320000000000015320                 
C00020180000001532010491079500000000030605210000145472                          
D00020181000002004920201145021251000000000020049000000000006683                 
C00020182000002004912130101500000000210963930000047919                          
D00020183000003724520220010025092000000000037245000000000037245                 
C00020184000003724510400005800000079503697450000111525                          
D00020185000000676020221134445544000000000006760000000000006760                 
C00020186000000676004210014600000000100686150000010194                          
D00020187000000782020220010019728000000000007820000000000007820                 
C00020188000000782004100103900003596810448710000103006                          
D00020189000000316020221125128481000000000003160000000000003160                 
C00020190000000316004330752400000000002964620000002977                          
D00020191000001434020221125100231000000000014340000000000014340                 
C00020192000001434004330752400000000042344610000005192                          
D00020193000000200020220010026853000000000002000000000000002000                 
C00020194000000200004121503200000021087379300000001045                          
D00020195000000201020220010004322000000000002010000000000002010                 
C00020196000000201005150215900000000013324530000007548                          
D00020197000001206520220010023427000000000012065000000000012065                 
C00020198000001206505150247600000009902861220000024982                          
D00020199000000395820201143775910000000000003958000000000003958                 
C00020200000000395812130102800000000064144780000001197                          
D00020201000002335120201123904733000000000023351000000000023351                 
C00020202000002335112130101500000000010697210000018457                          
D00020203000001104220201135156113000000000011042000000000011042                 
C00020204000001104232137870900000000061225000000001192                          
D00020205000000197920201143755128000000000001979000000000001979                 
C00020206000000197912130101500000000040498290000001609                          
D00020207000000308420201144886634000000000003084000000000003084                 
C00020208000000308412130157800000040004212150000001148                          
D00020209000007226320201135778680000000000265379000000000069616                 
C00020210000007226332137076500000004700007005003338915                          
D00020211000001849520201134915900000000000018495000000000018495                 
C00020212000001849532137076500000080008217170000003814                          
D00020213000001356020201134996860000000000027120000000000013560                 
C00020214000001356012130101500000000011812620000010385                          
D00020215000000473820201123918604000000000004738000000000011938                 
C00020216000000473812130101500000000050918370000001795                          
D00020217000001182720201124259241000000000011827000000000011827                 
C00020218000001182712130101500000000365929740000003244                          
D00020219000003093020201134953250000000000030930000000000030930                 
C00020220000003093012130101500000000670857440000011988                          
D00020221000012985020220010049538000000000129850000000000129850                 
C00020222000012985004210851700000000020110420000007707                          
D00020223000000443020221135988053000000000004430000000000004430                 
C00020224000000443004210269400000000003962810000002647                          
D00020225000000590020220010004434000000000011800000000000005900                 
C00020226000000590004210742400000000017405540000013844                          
D00020227000000823520221144940205000000000008235000000000008235                 
C00020228000000823504210515400000000000169500000007709                          
D00020229000000715520221134605938000000000007155000000000007155                 
C00020230000000715504210119000000073807588000000001969                          
D00020231000000603020221131081234000000000006030000000000002000                 
C00020232000000603004210147500000000001610040000007335                          
D00020233000000138020220010028122000000000001380000000000001380                 
C00020234000000138008390061900000000028461280000001413                          
D00020235000000254020221136176746000000000002540000000000002540                 
C00020236000000254004210117400000000001552570000010856                          
D00020237000001339020221134460073000000000013390000000000007370                 
C00020238000001339004210014600000000102951640000012125                          
D00020239000000448520221134459262000000000004485000000000004485                 
C00020240000000448504210014600000000103335110000016473                          
D00020241000000792020221134447513000000000007920000000000007920                 
C00020242000000792004210014600000000102667420000034106                          
D00020243000005892020221134473280000000000058920000000000029460                 
C00020244000005892024217600600000000003670370000005883                          
D00020245000001557020220010015574000000000015570000000000015570                 
C00020246000001557008300131400000000577366690000013188                          
D00020247000001028320220010029717000000000010283000000000010283                 
C00020248000001028304217448600000051841958030000021575                          
D00020249000000771020220010038422000000000007710000000000007710                 
C00020250000000771004210201800000000020399100000007442                          
D00020251000000533120220010022063000000000005331000000000005331                 
C00020252000000533110300363200000004890313320000004997                          
D00020253000000396020221134477813000000000003960000000000003960                 
C00020254000000396004210119000000073801272610000021780                          
D00020255000000342520220010006264000000000003425000000000003425                 
C00020256000000342504210592100000000001657610000003846                          
D00020257000003762020221134475321000000000037620000000000037620                 
C00020258000003762008300013700000002611632900000050350                          
D00020259000002819020220010017067000000000028190000000000028190                 
C00020260000002819004210485400000000001426030000024150                          
D00020261000000359020220010006702000000000003590000000000003590                 
C00020262000000359008300131400000000557951880000006554                          
D00020263000001144220220010011278000000000011442000000000011442                 
C00020264000001144204210126800000000200117600000002553                          
D00020265000000513520221134486371000000000005135000000000004935                 
C00020266000000513504210014600000000102951800000121665                          
D00020267000000988920221136219062000000000009889000000000009889                 
C00020268000000988904100012400000042031504370000026809                          
D00020269000000676020221134448993000000000006760000000000006760                 
C00020270000000676004210014600000000103264500000024618                          
D00020271000000537220220010021575000000000005372000000000005372                 
C00020272000000537207490330800000002670019340000002277                          
D00020273000000263820221126889253000000000002638000000000001319                 
C00020274000000263810310654200000000004106340000033027                          
D00020275000000199020220010003402000000000001990000000000001990                 
C00020276000000199004400003700000007411279660000011480                          
D00020277000000305020220010003422000000000003050000000000003050                 
C00020278000000305004100103900000000109684060000031089                          
D00020279000001369520221136142528000000000013695000000000013695                 
C00020280000001369504120055500000000509331300000007027                          
D00020281000000631520220010024705000000000006315000000000006315                 
C00020282000000631510400005800000026145214090000022993                          
D00020283000001275020221139706342000000000012750000000000012750                 
C00020284000001275010491079500000000062645500000014806                          
D00020285000000632520221131499156000000000006325000000000006325                 
C00020286000000632510490158400000020040402270000002734                          
D00020287000015846520221131275981000000000158465000000000158465                 
C00020288000015846510490702500000000001894330000069831                          
D00020289000000530020220010042606000000000010600000000000005300                 
C00020290000000530010410264200000000003108470000000043                          
D00020291000000207520221126960652000000000002075000000000002075                 
C00020292000000207510490127000000000002102110000026120                          
D00020293000001263020221126961864000000000012630000000000012630                 
C00020294000001263010400005800000011210003010000059611                          
D00020295000000335020220010044166000000000003350000000000003350                 
C00020296000000335010490561600000002000149740000078021                          
D00020297000002481520221126956599000000000024815000000000024815                 
C00020298000002481510490127000000000001995210000016016                          
D00020299000000792520221126963187000000000007925000000000007925                 
C00020300000000792530498235800000000010904390000006414                          
D00020301000000682020220010042599000000000006820000000000006820                 
C00020302000000682010490838300000000200024610000002652                          
D00020303000002839520220010006267000000000028395000000000028395                 
C00020304000002839510491391200000014001077060000008658                          
D00020305000000350020221131245018000000000001870000000000001870                 
C00020306000000350010491304800000000990009980000001020                          
D00020307000000281020220010040812000000000002810000000000002810                 
C00020308000000281010400005800000011270087420000026091                          
D00020309000000744020220010010989000000000007440000000000007440                 
C00020310000000744010490136400000000001554690000030507                          
D00020311000004373520220010010578000000000043735000000000043735                 
C00020312000004373510400001600000000226521770000061133                          
D00020313000000327020221145692651000000000003270000000000004270                 
C00020314000000327024127084800000005420155570000002121                          
D00020315000000657520220010016834000000000006575000000000006575                 
C00020316000000657524127091600000003210018250000035603                          
D00020317000001372020221136139841000000000013720000000000013720                 
C00020318000001372004400003700000001000945470000009866                          
D00020319000002811020221136139689000000000028110000000000028110                 
C00020320000002811004400003700000001000945470000009865                          
D00020321000000344620220010009430000000000003446000000000001710                 
C00020322000000344604400003700000008611746350000058290                          
D00020323000000246520220010016507000000000002465000000000002465                 
C00020324000000246505150247600000009900010590000070066                          
D00020325000000183520220010006414000000000001835000000000001835                 
C00020326000000183505150247600000000001158270000011182                          
D00020327000000938020220010016588000000000009380000000000018760                 
C00020328000000938008300010800000031119783470000080247                          
D00020329000000257520221136916175000000000002575000000000002575                 
C00020330000000257504210347300000086308317860000001786                          
D00020331000000548020221136705787000000000005480000000000005480                 
C00020332000000548004210347300001337875032100000003210                          
D00020333000001861520220010017102000000000018615000000000018615                 
C00020334000001861505190376100000015610108260000044262                          
D00020335000001023320220010017211000000000010233000000000010195                 
C00020336000001023308390501200000006007708150000018858                          
D00020337000001835220221135929121000000000018352000000000018352                 
C00020338000001835204210827400000000050001730000031820                          
D00020339000000777720220010000183000000000007777000000000001540                 
C00020340000000777708390501200000006016081150000015974                          
D00020341000000178020221132064184000000000001780000000000001780                 
C00020342000000178008390418100000000117020520000009570                          
D00020343000062412320201123965820000000002204095000000000800873                 
C00020344000062412312130102800000000060016100000009964                          
D00020345000003157120201123965823000000000031571000000000000000                 
C00020346000003157112130102800000000060016100000009965                          
D00020347000004103020221126957215000000000041030000000000041030                 
C00020348000004103010400005800000011200346060000018683                          
D00020349000001910520220010042609000000000019105000000000019105                 
C00020350000001910510490561600000002000118000000027250                          
D00020351000000974020221136038757000000000009740000000000009740                 
C00020352000000974004210482500000000040094360000001094                          
D00020353000000949520220010021119000000000009495000000000009495                 
C00020354000000949504120055500000057190213660000129092                          
D00020355000000639020220010036903000000000006390000000000006390                 
C00020356000000639026127111500000000000087890000002656                          
D00020357000000219020220010026085000000000004380000000000002190                 
C00020358000000219012520005700000011005007660000010428                          
D00020359000000434020221136302993000000000004340000000000004340                 
C00020360000000434009150297300000000001033250000042130                          
D00020361000004299620220010000094000000000042996000000000042996                 
C00020362000004299605190452400000000300053290001143686                          
D00020363000000246520221136693701000000000002465000000000002465                 
C00020364000000246504210325300000000201101130000009628                          
D00020365000000381520221135887007000000000003815000000000003815                 
C00020366000000381505190452400000000300064570000040749                          
D00020367000000415020220010021837000000000004150000000000004150                 
C00020368000000415004120359400000000009552010000042439                          
D00020369000000437520221136132688000000000004375000000000004375                 
C00020370000000437504121503200000016351363190000031876                          
D00020371000000254020221136514128000000000002540000000000002540                 
C00020372000000254004120055500000057010083200000000268                          
D00020373000010206020220010003342000000000102060000000000051030                 
C00020374000010206004120055500000057190170160000013160                          
D00020375000000196520221136438715000000000003930000000000001965                 
C00020376000000196504121044800000000246394860000004462                          
D00020377000001049520220010022998000000000010495000000000010495                 
C00020378000001049504100103900000001312004040000003398                          
D00020379000002715020221136515448000000000027150000000000027150                 
C00020380000002715004400003700000007421222160000019204                          
D00020381000000238720220010051394000000000002387000000000002387                 
C00020382000000238704200001300000008203390910000015677                          
D00020383000000168020220010027522000000000001680000000000001680                 
C00020384000000168004120359400000000002091150000004727                          
D00020385000000578020221145557331000000000005780000000000005780                 
C00020386000000578024127085100000502100190500000008720                          
D00020387000001820020221135899856000000000018200000000000009100                 
C00020388000001820008300131400000000554192670000017877                          
D00020389000001036720221135989100000000000010367000000000010367                 
C00020390000001036708390110000000000080877170000013329                          
D00020391000000472320221132887330000000000004723000000000002275                 
C00020392000000472308390141400000000087693110000001510                          
D00020393000000448520221134447944000000000004485000000000004485                 
C00020394000000448504210151400000000552271390000001884                          
D00020395000000424920220010020153000000000004249000000000004249                 
C00020396000000424908390170200000000050133560000014555                          
D00020397000000418820221138051379000000000008376000000000004188                 
C00020398000000418808390068000000051807371050000052449                          
D00020399000002971320220010040438000000000029713000000000014520                 
C00020400000002971308151240700000000005159870000007909                          
D00020401000000101520221125455887000000000001015000000000001015                 
C00020402000000101508151292800000000002512320000018233                          
D00020403000000892420220010001620000000000008924000000000002960                 
C00020404000000892408100021000000043491016930000018687                          
D00020405000000395020220010036920000000000003950000000000003950                 
C00020406000000395008650695500000000021015330000004214                          
D00020407000001079020221135899149000000000010790000000000005395                 
C00020408000001079008390338600000000000980270000006719                          
D00020409000000484020220010025476000000000004840000000000008810                 
C00020410000000484008290087200000000169439280000010629                          
D00020411000002144020221132914319000000000021440000000000010720                 
C00020412000002144008390389400000001700445150000025004                          
D00020413000000508020221125455830000000000005080000000000005080                 
C00020414000000508008151474800000000020008220000027283                          
D00020415000000941520220010046175000000000009415000000000018830                 
C00020416000000941509140873400000013010022580000006209                          
D00020417000000240020221137132522000000000002400000000000001200                 
C00020418000000240008150180300000002234656020000007707                          
D00020419000000142020221125454843000000000002840000000000001420                 
C00020420000000142008150135300000000005695480000001672                          
D00020421000002582520220010021156000000000025825000000000025825                 
C00020422000002582504120871900000000004009900000005898                          
D00020423000001186020221136127362000000000011860000000000011860                 
C00020424000001186004121503200000016351304090000013135                          
D00020425000000199920221136167221000000000001990000000000001990                 
C00020426000000199904100015300000016697381070000030183                          
D00020427000000436720220010022997000000000004367000000000004435                 
C00020428000000436704100271100000075233216310000003225                          
D00020429000000612520220010022857000000000006125000000000006125                 
C00020430000000612504100271100000075233216310000003226                          
D00020431000000387020221136536208000000000003870000000000003870                 
C00020432000000387004100103900003526710032700000015615                          
D00020433000000668820221138489808000000000006688000000000006688                 
C00020434000000668804120292200000000019999010000029225                          
D00020435000001410020220010021157000000000014100000000000014100                 
C00020436000001410004121503200000017802375030000010207                          
D00020437000000204520221135888089000000000002045000000000000000                 
C00020438000000204524127195700000000603102520000017186                          
D00020439000000725020220010050194000000000007250000000000007425                 
C00020440000000725004120055500000010180168080000011272                          
D00020441000000141020221136129318000000000001410000000000001410                 
C00020442000000141004121503200000016301103140000001288                          
D00020443000000828020221136132398000000000008280000000000008280                 
C00020444000000828004121044800000000248970660000006796                          
D00020445000000293520220010004635000000000002935000000000002935                 
C00020446000000293504410297700000004211079010000020495                          
D00020447000000185520220010003676000000000001855000000000001855                 
C00020448000000185504120592900000004225005730000006443                          
D00020449000002928520221136558966000000000029285000000000029285                 
C00020450000002928504410130500000000002945630000043121                          
D00020451000000791120220010008218000000000007911000000000007911                 
C00020452000000791104120292200000000010341490000002158                          
D00020453000000128520220010046134000000000001285000000000001285                 
C00020454000000128506701176000000000000206020000076703                          
D00020455000000637520221132065327000000000006375000000000006375                 
C00020456000000637505320820200000000101183540000037020                          
D00020457000003913220220010002891000000000039132000000000019665                 
C00020458000003913205390219700000042715372480000016507                          
D00020459000000467020221132061527000000000004670000000000002335                 
C00020460000000467005390604100007541066457010000009219                          
D00020461000000293520220010023960000000000002935000000000002935                 
C00020462000000293504400003700000007891692650000030263                          
D00020463000000264520221125957325000000000002645000000000002645                 
C00020464000000264528157325900000160004607120000041558                          
D00020465000000435520220010022963000000000004355000000000004355                 
C00020466000000435504100103900000010135013770000029630                          
D00020467000000196520221142604317000000000001965000000000001965                 
C00020468000000196504331809200000000502069860000006733                          
D00020469000002252020220010011946000000000022520000000000022520                 
C00020470000002252004120258200001301151473940000003188                          
D00020471000000437520221136516568000000000004375000000000004375                 
C00020472000000437504120871900000000013369390000013805                          
D00020473000000435020221136163733000000000004350000000000004350                 
C00020474000000435004120871900000000003102680000001360                          
D00020475000002361120221136164429000000000023611000000000011715                 
C00020476000002361104120871900000045603133090000003092                          
D00020477000000444020221124951229000000000004440000000000004440                 
C00020478000000444007240478600000021769645220000319196                          
D00020479000000962520220010049855000000000019250000000000009625                 
C00020480000000962510120568100077111794223630000005962                          
D00020481000001567020220010005986000000000015670000000000015670                 
C00020482000001567010490702500000000010210660000006291                          
D00020483000002753020220010051033000000000027530000000000027530                 
C00020484000002753010411381900000000002947040000119758                          
D00020485000000119520221131332180000000000001195000000000001195                 
C00020486000000119510400005800000081800130390000018998                          
D00020487000000174020221131377074000000000001740000000000001740                 
C00020488000000174010411381900000000002551260000000862                          
D00020489000000172020220010028092000000000001720000000000007420                 
C00020490000000172010490145800000000000118340000001997                          
D00020491000000227020221143182854000000000002270000000000002270                 
C00020492000000227030498253600000000000292210000003450                          
D00020493000000835520221123568041000000000008355000000000008355                 
C00020494000000835510491349100000001005818010000015509                          
D00020495000000643520220010025684000000000006435000000000006435                 
C00020496000000643510400149700000000001605840000064475                          
D00020497000002593020220010007640000000000025930000000000025930                 
C00020498000002593010400005800000026984015620000118131                          
D00020499000000362520221131207980000000000003625000000000003625                 
C00020500000000362510490123800000000002413870000018063                          
D00020501000000386520220010030854000000000003865000000000003865                 
C00020502000000386510400005800000075538253520000002002                          
D00020503000011676520221000089988000000000116765000000000116765                 
C00020504000011676510490953100000002006911050000017351                          
D00020505000001937020220010039953000000000019370000000000019370                 
C00020506000001937010411381900000000002556540000004249                          
D00020507000000177020220010005260000000000001770000000000001770                 
C00020508000000177010490011600000000004215450000034921                          
D00020509000002762520220010039517000000000027625000000000013745                 
C00020510000002762506120175400000020484746840000014544                          
D00020511000000968020221139853171000000000009680000000000009680                 
C00020512000000968010491079500000000053693730000008683                          
D00020513000000550020221131344093000000000005500000000000005500                 
C00020514000000550010411381900000000005029890000003168                          
D00020515000004788020220010006193000000000047880000000000047880                 
C00020516000004788010491391200000075706502960000054648                          
D00020517000000501020221000091002000000000005010000000000005010                 
C00020518000000501030498246800000001601646030000001977                          
D00020519000000227020221131331983000000000002270000000000002270                 
C00020520000000227010400002900001487225773240000016579                          
D00020521000001992020221130926007000000000019920000000000019920                 
C00020522000001992010400002900001508909644250000003390                          
D00020523000002987020221139848522000000000029870000000000029870                 
C00020524000002987010490158400000003004819820000007680                          
D00020525000000391520221123561864000000000003915000000000003915                 
C00020526000000391510491391200000061002223350000007934                          
D00020527000000316020220010009255000000000003160000000000020240                 
C00020528000000316010490409900000000002712910000002651                          
D00020529000000187020220010019470000000000001870000000000001870                 
C00020530000000187010490011600000000001032920000034455                          
D00020531000000454020221131296698000000000004540000000000004540                 
C00020532000000454010400005800000081800079230000013355                          
D00020533000000510020220010026577000000000005100000000000005100                 
C00020534000000510010491391200000062030009310000004451                          
D00020535000000426020220010006360000000000004260000000000004260                 
C00020536000000426010410219200000000777169960000007647                          
D00020537000000674020220010023868000000000006740000000000006740                 
C00020538000000674004330685500000000012636620000006740                          
D00020539000000158020221125101431000000000001580000000000001580                 
C00020540000000158004330685500000000103302640000005850                          
D00020541000000428520220010004098000000000004285000000000004285                 
C00020542000000428504330750800000000006157180000007018                          
D00020543000001855520221139738703000000000018555000000000018555                 
C00020544000001855504331149700000000097016430000015582                          
D00020545000000817020220010025345000000000008170000000000008170                 
C00020546000000817004300009600000000027565140000008127                          
D00020547000000513020220010025362000000000005130000000000009920                 
C00020548000000513005190039500000000401046050000028311                          
D00020549000000620520220010026239000000000006205000000000006205                 
C00020550000000620504331325900000000070015830000008688                          
D00020551000000548120220010001797000000000005481000000000005481                 
C00020552000000548104331809200000000040602570000031876                          
D00020553000000671020221125129941000000000013626000000000006710                 
C00020554000000671004331444900000000130000280000018509                          
D00020555000000865020221125127227000000000017300000000000008650                 
C00020556000000865004330685500000000506143000000011801                          
D00020557000000770020220010000725000000000007700000000000007700                 
C00020558000000770004330685500000030013136200000005540                          
D00020559000000199520220010042656000000000001995000000000001995                 
C00020560000000199504330682600000073001494940000005082                          
D00020561000002907020221131099627000000000029070000000000014535                 
C00020562000002907008390501200000006022537150000012276                          
D00020563000000322020220010020341000000000003220000000000003220                 
C00020564000000322004210014600000000104314960000015582                          
D00020565000000167520221123566531000000000001675000000000001675                 
C00020566000000167510490034900000000005415730000001554                          
D00020567000000357520220010005462000000000003575000000000003575                 
C00020568000000357510491079500000000030708250000003536                          
D00020569000002352220221123566593000000000023522000000000014905                 
C00020570000002352210490134800000000001082940000016790                          
D00020571000000811520220010025943000000000016230000000000008115                 
C00020572000000811510491079500000000201027290000001202                          
D00020573000000216020220010049688000000000002160000000000002160                 
C00020574000000216010491025800000000775833700000005155                          
D00020575000000191020220010040847000000000001910000000000001910                 
C00020576000000191010490953100000000005810790000007481                          
D00020577000000110020221131347501000000000001100000000000001095                 
C00020578000000110010490953100000000502057970000002955                          
D00020579000001035020220010044136000000000010350000000000010350                 
C00020580000001035010411381900000000002936260000021198                          
D00020581000000324020221131345109000000000003240000000000003240                 
C00020582000000324010411381900000000002554780000003925                          
D00020583000000951520221145806813000000000009515000000000009515                 
C00020584000000951510491375000000000001462950000004693                          
D00020585000000413020221131345536000000000004130000000000004130                 
C00020586000000413010110302600000000000086720000000672                          
D00020587000002280520220010006422000000000022805000000000022805                 
C00020588000002280510491079500000000039435830000003583                          
D00020589000000566520220010006180000000000005665000000000005665                 
C00020590000000566510400005800000011550808040000014241                          
D00020591000001300020221139852301000000000012491000000000002505                 
C00020592000001300010400005800000011480108440000003571                          
D00020593000000227020220010024949000000000002270000000000002270                 
C00020594000000227010400005800000071965646730000002093                          
D00020595000000787020221131210130000000000007870000000000007870                 
C00020596000000787010491325500000000001044970000034637                          
D00020597000001166620220010011388000000000011666000000000005855                 
C00020598000001166610490702500000000010329130000001570                          
D00020599000000111020221134502330000000000001110000000000001110                 
C00020600000000111004340003600000033551055420000024721                          
D00030001000000141020221136561460000000000001410000000000001410                 
C00030002000000141024417157500000000190758860000054594                          
D00030003000001538320220010046139000000000015383000000000015383                 
C00030004000001538304410933600000003070012860000001658                          
D00030005000000207020221136561647000000000002070000000000002070                 
C00030006000000207004410130500000000030050180000004955                          
D00030007000001208020220010004882000000000024160000000000012080                 
C00030008000001208004410130500000000001729450000041375                          
D00030009000000727520221136221360000000000007275000000000007275                 
C00030010000000727504410130500000000002803560000027646                          
D00030011000000242020221125949606000000000002420000000000002420                 
C00030012000000242008150469300000000010217880000002918                          
D00030013000000264520221125950107000000000002645000000000002645                 
C00030014000000264508150359700000000033008780000007347                          
D00030015000000194520220010026557000000000001945000000000001945                 
C00030016000000194528157325900000160044249060000003884                          
D00030017000002500020221131128723000000000029700000000000014850                 
C00030018000002500008390204400000000075169160000003502                          
D00030019000005985120220010018397000000000059851000000000059851                 
C00030020000005985108390818700000020002300010000035356                          
D00030021000003080820220010025546000000000030808000000000030808                 
C00030022000003080808300010800000030001417120000021409                          
D00030023000000213020221131346832000000000002130000000000002130                 
C00030024000000213010111503000000014302365960000182507                          
D00030025000001356020220010028738000000000013560000000000013560                 
C00030026000001356010400005800000079401669320000002477                          
D00030027000000100520220010007752000000000001005000000000001005                 
C00030028000000100504220091000000008511586500000013738                          
D00030029000000215520220010016719000000000002155000000000002155                 
C00030030000000215508390204400000000041073220000015821                          
D00030031000007591020220010005164000000000075910000000000075910                 
C00030032000007591010491079500000000056181860000021158                          
D00030033000001524520220010006429000000000005045000000000015045                 
C00030034000001524504400003700000007654692830000001751                          
D00030035000000835520220010025005000000000008355000000000008355                 
C00030036000000835510491079500000000054583020000035646                          
D00030037000000661020220010008214000000000006610000000000006610                 
C00030038000000661010400085400000000001306250000006401                          
D00030039000000539520221135915277000000000005395000000000005395                 
C00030040000000539508390463100000000004408250000044284                          
D00030041000001301020221131098118000000000013010000000000004315                 
C00030042000001301008390036300000004939932160000006384                          
D00030043000001861520220010038701000000000018615000000000018615                 
C00030044000001861510411381900000000002945720000020086                          
D00030045000000282520221145566860000000000002825000000000002825                 
C00030046000000282510490770800000000002116490000001356                          
D00030047000000857020220010004027000000000008570000000000008570                 
C00030048000000857004330685500000030013136200000005541                          
D00030049000000421020220010046192000000000004210000000000004210                 
C00030050000000421008150944900000000201578000000001725                          
D00030051000000220420221126883283000000000002204000000000000545                 
C00030052000000220408191023200000000041316730000007275                          
D00030053000000247520220010024579000000000002475000000000002475                 
C00030054000000247508100942800000018640007820000091400                          
D00030055000000955020221126882560000000000009550000000000009550                 
C00030056000000955008100003200000116015000230000020073                          
D00030057000000190020221133013276000000000001900000000000001900                 
C00030058000000190025317006200000000701103420000009843                          
D00030059000000783520221126956837000000000007835000000000007835                 
C00030060000000783510490561600000002000125050000017642                          
D00030061000000947020220010002073000000000009470000000000009470                 
C00030062000000947003607615000000062165022320000003047                          
D00030063000001412120220010041274000000000014121000000000014121                 
C00030064000001412104420250500000021200029390000006896                          
D00030065000002490220220010040357000000000024902000000000024902                 
C00030066000002490204210827400000000070101410000002803                          
D00030067000001195420221146122779000000000023908000000000011954                 
C00030068000001195424227882300000007038712450000007401                          
D00030069000000196520220010028227000000000001965000000000003930                 
C00030070000000196504210399400000000050673320000003508                          
D00030071000000478520220010005104000000000004785000000000004785                 
C00030072000000478504210485400000000001358600000006088                          
D00030073000003536420221144939965000000000035364000000000035364                 
C00030074000003536408390258100000000005919390000001481                          
D00030075000001505020221135900786000000000030100000000000015050                 
C00030076000001505004210144600000000750951980000012834                          
D00030077000002260120221135915644000000000022601000000000022601                 
C00030078000002260104210839700000000621027880000006307                          
D00030079000002554120221135887557000000000025541000000000025541                 
C00030080000002554104210144600000000750414210000022492                          
D00030081000004574420220010008633000000000091323000000000045744                 
C00030082000004574404210485400000000001358600000006089                          
D00030083000000200020221135888120000000000002000000000000002000                 
C00030084000000200004210144600000000750836210000020306                          
D00030085000000830820220010018262000000000008308000000000004155                 
C00030086000000830804210548400000000026663830000021885                          
D00030087000001434520221134454698000000000014345000000000014345                 
C00030088000001434508300010800000031145212970000002981                          
D00030089000000173020220010017703000000000001730000000000001730                 
C00030090000000173011190340700000000008014490000001877                          
D00030091000000900020221000127878000000000009000000000000009000                 
C00030092000000900011100002500000077901983740000023655                          
D00030093000001761020221131203804000000000017610000000000017610                 
C00030094000001761011190351700000033017494950000004208                          
D00030095000000584920220010023157000000000005849000000000001940                 
C00030096000000584911190123400000000700142870000016180                          
D00030097000000196020221136340907000000000001960000000000001960                 
C00030098000000196032117097800000001930071270000001959                          
D00030099000000591020220010003168000000000005910000000000005910                 
C00030100000000591012100035800000008454070190000164036                          
D00030101000000169020221137087096000000000001690000000000001690                 
C00030102000000169012114181900000006040381010000003229                          
D00030103000001914520220010021050000000000019145000000000057435                 
C00030104000001914512110078200000001251070370000008282                          
D00030105000004229520220010006276000000000042295000000000042295                 
C00030106000004229532117097800000001930126550000001545                          
D00030107000000208520221143719625000000000002085000000000002085                 
C00030108000000208512104288200000060963491930000001184                          
D00030109000002940020220010021061000000000029400000000000029400                 
C00030110000002940012114026300000001110023210000027150                          
D00030111000000820220221146122757000000000008202000000000002027                 
C00030112000000820224418066300017000001190910000001338                          
D00040001000000793020221124949018000000000007930000000000007930                 
C00040002000000793002200083900000007000137330000010996                          
D00040003000000212520221124872552000000000002125000000000002125                 
C00040004000000212524337421800000000940716690000001398                          
D00040005000000296020220010003466000000000002960000000000002960                 
C00040006000000296002200004600000000056653930000040183                          
D00040007000003627520220010036891000000000036275000000000036275                 
C00040008000003627502200004600000088910696870000010444                          
D00040009000000793020221124877843000000000007930000000000007930                 
C00040010000000793002200004600000088908932440000012527                          
D00040011000000531020221124870462000000000010620000000000005310                 
C00040012000000531024337421800000035660301300000002974                          
D00040013000000312020221123498850000000000003120000000000003120                 
C00040014000000312006120175400000020484292410000002783                          
D00040015000001746020220010008599000000000034920000000000017460                 
C00040016000001746006120473500000000000244890000001232                          
D00040017000004443020221123540424000000000044430000000000044430                 
C00040018000004443006112012300000000010013790000009018                          
D00040019000000400020221125119054000000000004000000000000004000                 
C00040020000000400006310068800000009003773010000035118                          
D00040021000000399720220010012008000000000003997000000000003997                 
C00040022000000399706121286600000000662137940000002131                          
D00040023000000886720221137408717000000000013367000000000004434                 
C00040024000000886705320098300000008500723230000002323                          
D00040025000000341620220010045832000000000003416000000000003365                 
C00040026000000341625327943900000454443561120000002821                          
D00040027000001487020220010002353000000000014870000000000004932                 
C00040028000001487005320220800000000010492400000008361                          
D00040029000001786520220010018138000000000017865000000000017865                 
C00040030000001786506100005200000032715800700000010223                          
D00040031000000896020221134436661000000000008960000000000008960                 
C00040032000000896006110137500000062030349760000007735                          
D00040033000000232520221127025160000000000002325000000000002325                 
C00040034000000232506110259400000000750337120000000882                          
D00040035000001143020220010016613000000000005715000000000005715                 
C00040036000001143006110487700000001500109080000002076                          
D00040037000000636520221126776418000000000006365000000000006365                 
C00040038000000636506110137500000063192047170000009451                          
D00040039000004562020220010043801000000000045620000000000022810                 
C00040040000004562006111341500000051421306710000002635                          
D00040041000001109320220010017590000000000027293000000000011015                 
C00040042000001109306130036700000000000305930000010505                          
D00040043000000232520221146121560000000000004650000000000002325                 
C00040044000000232506110487700000001500147020000001268                          
D00040045000003422020221125109478000000000138427000000000034220                 
C00040046000003422026318448800000000012432140000009642                          
D00040047000000204520220010043907000000000002045000000000002045                 
C00040048000000204506310551500000000121509010000002271                          
D00040049000000334520221125118904000000000003345000000000003345                 
C00040050000000334526318448800000000000755750000008624                          
D00040051000001505020221125119391000000000015050000000000015050                 
C00040052000001505026318448800000000017783670000002615                          
D00040053000000828020220010046932000000000008280000000000004140                 
C00040054000000828006311377200000076003021710000000429                          
D00040055000000511020221131134366000000000005110000000000002555                 
C00040056000000511005310112100000051191864060000005965                          
D00040057000000809520220010014517000000000008095000000000008095                 
C00040058000000809505300021900020000248226600000004735                          
D00040059000000289520221131148826000000000002895000000000002895                 
C00040060000000289505300019600000006542570180000006671                          
D00040061000004273020220010022798000000000085460000000000042730                 
C00040062000004273005300021900020516400233710000021152                          
D00040063000000589020220010014190000000000005890000000000005890                 
C00040064000000589025317159500000021300136030000001836                          
D00040065000000936520221132795823000000000009365000000000009365                 
C00040066000000936506110252300000000000212530000013294                          
D00040067000000540520220010049177000000000005405000000000005405                 
C00040068000000540506120267200000061013740800000002654                          
D00040069000000695020220010015590000000000006950000000000006950                 
C00040070000000695006120267200000089000010000000012252                          
D00040071000000310520221126954669000000000006210000000000003105                 
C00040072000000310510490034900000000021145610000015278                          
D00040073000000522220221126958525000000000015512000000000005145                 
C00040074000000522210490770800000000001252450000021311                          
D00040075000000498020221126971482000000000004980000000000004980                 
C00040076000000498010490034900000000241175230000005024                          
D00040077000000972520220010030930000000000009725000000000009725                 
C00040078000000972527497276000000009877042570000001186                          
D00040079000000872020220010004989000000000008720000000000008660                 
C00040080000000872006110369000000000000013540000029626                          
D00040081000000447020220010001123000000000004470000000000004470                 
C00040082000000447006100010400010000130274030000010841                          
D00040083000001500020221136148544000000000065616000000000016159                 
C00040084000001500006111284300000020011194470000003367                          
D00040085000007183720220010006570000000000143674000000000071837                 
C00040086000007183706111245800000000000169440000006540                          
D00040087000000563320221131180127000000000016733000000000005550                 
C00040088000000563306110137500000001723236710000001091                          
D00040089000000166020221131155006000000000001660000000000001660                 
C00040090000000166006111341500000051485610110000016676                          
D00040091000000149520221145033644000000000001495000000000001495                 
C00040092000000149506110244200000000000600200000001364                          
D00040093000000168520221126885764000000000003370000000000001685                 
C00040094000000168504331809200000000721079740000021174                          
D00040095000001534520221131114675000000000015345000000000005115                 
C00040096000001534504330509200000000080019760000007617                          
D00040097000000600020221132064966000000000001900000000000001900                 
C00040098000000600025317027900000000002380130000014750                          
D00040099000001296020220010045678000000000012960000000000000000                 
C00040100000001296006100022700020001396485640000004287                          
D00040101000003103920220010020672000000000031039000000000010295                 
C00040102000003103906111284300000020731035880000002907                          
D00040103000000550520221124856859000000000005505000000000005505                 
C00040104000000550511312265500000011000053890000012519                          
D00040105000000536020220010018298000000000005360000000000005360                 
C00040106000000536006111245800000000000759520000038109                          
D00040107000001986520220010004950000000000039070000000000019205                 
C00040108000001986506110426200000010400218650000003374                          
D00040109000001657320221123520260000000000016573000000000004065                 
C00040110000001657306110137500000064901378440000040192                          
D00040111000003414920220010009854000000000034149000000000016885                 
C00040112000003414910490702500000000001917100000017691                          
D00040113000000487720221131345966000000000004877000000000002420                 
C00040114000000487710490702500000000001917100000017690                          
D00040115000000254520220010031060000000000002545000000000002545                 
C00040116000000254510490158400000020041404700000001177                          
D00040117000000322020220010035333000000000003220000000000003220                 
C00040118000000322010411381900000000003361740000007967                          
D00040119000001275520220010010132000000000025510000000000012755                 
C00040120000001275510491079500000000060306210000004108                          
D00040121000001426020220010048150000000000014260000000000028520                 
C00040122000001426010491391200000023066075300000010272                          
D00040123000007049020220010015910000000000070490000000000070490                 
C00040124000007049010491079500000000059946620000002946                          
D00040125000001987520221131277807000000000019875000000000019875                 
C00040126000001987510400005800000081800132580000016679                          
D00040127000002744720221139497961000000000027447000000000013620                 
C00040128000002744710400005800000079509253530000003932                          
D00040129000000664520221131562633000000000006645000000000006645                 
C00040130000000664510490702500000000010409100000002130                          
D00040131000000257020221123574852000000000002570000000000002570                 
C00040132000000257010490953100000000007114840000010859                          
D00040133000000162020221131355076000000000001620000000000001620                 
C00040134000000162010490058500000000002018800000004060                          
D00040135000000454020220010027961000000000009080000000000004540                 
C00040136000000454010490953100000002006412580000005167                          
D00040137000002133520220010024981000000000021335000000000021335                 
C00040138000002133510491391200000075703109850000019424                          
D00040139000001000020220010027132000000000012700000000000006350                 
C00040140000001000010400085400000000031160790000002337                          
D00040141000001033020221126873734000000000010330000000000010330                 
C00040142000001033009140873400000041001771770000026467                          
D00040143000000783520220010023075000000000007835000000000007835                 
C00040144000000783508100021000001523014196760000022883                          
D00040145000000791020221145956244000000000007910000000000003955                 
C00040146000000791008290127900000201331439330000000933                          
D00040147000000766020220010025749000000000007660000000000007660                 
C00040148000000766008200054900000083100234710000056976                          
D00040149000000565620220010017852000000000005656000000000005656                 
C00040150000000565608300013700000002610101740000012311                          
D00040151000000731520220010028437000000000007315000000000007315                 
C00040152000000731508390389400000000100153290000005281                          
D00040153000000558020220010008100000000000011160000000000005580                 
C00040154000000558004210839700000000035149780000004114                          
D00040155000000228520220010022189000000000002285000000000002285                 
C00040156000000228505311268600000010000842590000027719                          
D00040157000000215520221136138165000000000002165000000000002165                 
C00040158000000215504100271100000000179731160000025286                          
D00040159000001504520220010016861000000000015045000000000015045                 
C00040160000001504504210017500000004939741330000053427                          
D00040161000000849020221136141902000000000016980000000000008490                 
C00040162000000849024107039400000026722915000000001160                          
D00040163000000292020221136127209000000000002920000000000002920                 
C00040164000000292007240052800000045308687200000002815                          
D00040165000000350020221136130387000000000003500000000000003625                 
C00040166000000350004120270200000001000349280000008181                          
D00040167000001069520220010010102000000000010695000000000015939                 
C00040168000001069506111259700000000001230260000005444                          
D00040169000000873320221136130331000000000008733000000000008600                 
C00040170000000873306100010400000036011381790000009580                          
D00040171000000986820220010006497000000000009868000000000001205                 
C00040172000000986806120253300000000001488890000008889                          
D00040173000000619020221136173644000000000006190000000000006190                 
C00040174000000619006110464400000000004181780000003712                          
D00040175000001206020220010000497000000000012060000000000012060                 
C00040176000001206006111259700000000001069140000017592                          
D00040177000001525520220010040888000000000015255000000000015255                 
C00040178000001525510400005800000011210004320000013309                          
D00040179000000207520221126961014000000000002075000000000002075                 
C00040180000000207510400005800000011275258460000005532                          
D00040181000003082020221139798071000000000007705000000000015410                 
C00040182000003082010490336200000084003815520000003816                          
D00040183000000132520220010026278000000000002651000000000001325                 
C00040184000000132510490561600000002000110880000007390                          
D00040185000000293320221126958148000000000002933000000000000725                 
C00040186000000293310490838300000000080089410000002873                          
D00040187000000335520220010027731000000000003355000000000003355                 
C00040188000000335510490172000000000005507490000006785                          
D00040189000001181320220010040554000000000011813000000000003918                 
C00040190000001181304220091000000022701750570000020306                          
D00040191000000371020220010023235000000000003710000000000003710                 
C00040192000000371004120524600000000000807170000008343                          
D00040193000001713520220010022635000000000017135000000000017135                 
C00040194000001713504400003700000007704330760000003869                          
D00040195000000610720221135930537000000000006107000000000006107                 
C00040196000000610704420250500000021220049120000021064                          
D00040197000002097020221135884798000000000020970000000000020970                 
C00040198000002097004210269400000000007022690000004347                          
D00040199000001550020220010040362000000000015230000000000008774                 
C00040200000001550004210347300000000007765990000013377                          
D00040201000001440020220010006327000000000014321000000000014400                 
C00040202000001440008300010800000031118288590000002815                          
D00040203000000614520220010038547000000000006145000000000006145                 
C00040204000000614504210179200000000101946270000010917                          
D00040205000000485020221134461054000000000004850000000000004850                 
C00040206000000485004210151400000000000734740000000526                          
D00040207000000167020220010016460000000000001670000000000001670                 
C00040208000000167004210416800000000552113110000018142                          
D00040209000004783720220010018804000000000047837000000000043895                 
C00040210000004783708390068000000051831231400000005792                          
D00040211000000487020220010039163000000000004870000000000004870                 
C00040212000000487004210201800000000020244030000003400                          
D00040213000000946620220010014490000000000009466000000000009466                 
C00040214000000946604210446900000000020115060000042579                          
D00040215000006351020220010017172000000000063510000000000031755                 
C00040216000006351004210144600000000750856000000006292                          
D00040217000000881020221134528420000000000008810000000000008810                 
C00040218000000881008300013700000002603899840000015246                          
D00040219000007492020221134491099000000000074920000000000074920                 
C00040220000007492008300131400000000551705950000021615                          
D00040221000005791420220010046079000000000057914000000000028957                 
C00040222000005791404210485400000000001340820000001768                          
D00040223000004133020220010018585000000000041330000000000041330                 
C00040224000004133004210017500000004959732400000002797                          
D00040225000003009620221146736564000000000030096000000000015048                 
C00040226000003009604210416800000000804860620000026386                          
D00040227000000397020221135913925000000000003970000000000001985                 
C00040228000000397004210742400000000014158680000007469                          
D00040229000005639020220010002442000000000056390000000000056390                 
C00040230000005639008300013700000002603909880000010554                          
D00040231000001564020220010002309000000000015640000000000007820                 
C00040232000001564008300013700000002605028010000008401                          
D00040233000000859520220010002320000000000008595000000000008595                 
C00040234000000859504210269400000040030750190000003621                          
D00040235000000791020220010034471000000000007910000000000007910                 
C00040236000000791008300013700000006958707900000002334                          
D00040237000001740020221136223174000000000017400000000000017400                 
C00040238000001740004210544200000000000274740000006163                          
D00040239000001137520221134482762000000000011375000000000011385                 
C00040240000001137508300013700000002601701850000017253                          
D00040241000000421420221135898766000000000004214000000000004214                 
C00040242000000421404210271700000000060095140000002136                          
D00040243000000182520220010016631000000000001825000000000001825                 
C00040244000000182504210269400000000006020430000024296                          
D00040245000001041020221136914354000000000010410000000000010410                 
C00040246000001041024217002800000006603101990000008065                          
D00040247000004864420201139439765000000000048644000000000048644                 
C00040248000004864412130157800000040005087520000000129                          
D00040249000010312520201135090621000000000201382000000000053125                 
C00040250000010312532137076500000080026093700000006840                          
D00040251000003018720201135135671000000000060374000000000030187                 
C00040252000003018732137076500000080028310300000002285                          
D00040253000000343720201135138431000000000003437000000000003437                 
C00040254000000343712130101500000000201126030000003707                          
D00040255000000177120201144762533000000000001771000000000001771                 
C00040256000000177132137990200000000001092800000001761                          
D00040257000001066620201135105798000000000010666000000000005333                 
C00040258000001066632137981800000000579348040000001246                          
D00040259000001111520201139440701000000000011115000000000011115                 
C00040260000001111512130101500001843360822750000002275                          
D00040261000000395820201135094110000000000003958000000000001979                 
C00040262000000395832137076500547501705609130000000913                          
D00040263000001192720201139445681000000000024544000000000012617                 
C00040264000001192712130157800000000090093020000012600                          
D00040265000000479120201145064624000000000009582000000000004791                 
C00040266000000479112130157800000040002915830000001257                          
D00040267000000242020220010026043000000000002420000000000002420                 
C00040268000000242010491079500000000008219750000032196                          
D00040269000000587020221136216208000000000005870000000000005870                 
C00040270000000587024127137100000002770043210000002773                          
D00040271000002605520221136126877000000000026055000000000026055                 
C00040272000002605504100015300000016697708480000005371                          
D00040273000000375020220010013371000000000003750000000000003750                 
C00040274000000375004120871900000000000074650000001969                          
D00040275000003870820221135898852000000000038708000000000038708                 
C00040276000003870808300010800000031147279140000009743                          
D00040277000001366020221134488088000000000013660000000000013660                 
C00040278000001366004210014600000000103850710000006553                          
D00040279000000205720221134509628000000000006057000000000001690                 
C00040280000000205704210179200003580303367470000006747                          
D00040281000005164520220010026791000000000619740000000000000000                 
C00040282000005164504210144600000000751025620000002017                          
D00040283000000743020221135890598000000000007430000000000007430                 
C00040284000000743004210126800008369250842550000004255                          
D00040285000000292020221134521941000000000002920000000000002920                 
C00040286000000292004210201800000000005613260000005026                          
D00040287000001162520220010028930000000000023879000000000011625                 
C00040288000001162504210017500001458084908280000002581                          
D00040289000001861020221134478769000000000018610000000000018610                 
C00040290000001861004210014600000000105183480000003447                          
D00040291000002343520220010014687000000000023435000000000023435                 
C00040292000002343504210446900000000080077800000004771                          
D00040293000001736020221134572031000000000017360000000000017360                 
C00040294000001736008300013700000006382297160000002580                          
D00040295000000641020220010023862000000000006410000000000006410                 
C00040296000000641008390521600000000080084930000007474                          
D00040297000007020020220010034803000000000070200000000000070200                 
C00040298000007020004210658000000078002374680000001416                          
D00040299000000358520221125462178000000000003585000000000003585                 
C00040300000000358506530027900000009116005010000002967                          
D00040301000000229020221125123808000000000002290000000000002290                 
C00040302000000229004300009600000010206393830000004078                          
D00040303000000253520221132882202000000000005070000000000002535                 
C00040304000000253503130627800000000070074610000076778                          
D00040305000000600520221132904535000000000006005000000000006005                 
C00040306000000600504330073800000063511608630000001046                          
D00040307000000253520221132907251000000000002535000000000002535                 
C00040308000000253524337421800000000840339430000001878                          
D00040309000001965020220010049041000000000019650000000000009825                 
C00040310000001965006120473500000000000241170000001363                          
D00040311000000792520221123492619000000000007925000000000007925                 
C00040312000000792506120175400000000100263590000040962                          
D00040313000000352020221123531934000000000003520000000000003520                 
C00040314000000352006120202500000002022431010000008601                          
D00040315000000162520221126892804000000000001625000000000001625                 
C00040316000000162508290251100000000005174610000019029                          
D00040317000000262020221127132080000000000002620000000000002620                 
C00040318000000262028297020400000000052450140000003991                          
D00040319000000693020221126893890000000000006930000000000006930                 
C00040320000000693008290859900000004000227940000001883                          
D00040321000001129020221126929817000000000011290000000000011290                 
C00040322000001129008290859900000004000045940000011175                          
D00040323000000396520221126930604000000000003965000000000003965                 
C00040324000000396508290859900000004000088010000017432                          
D00050001000001148620220010023519000000000022960000000000011480                 
C00050002000001148610490702500000000001879700000019759                          
D00050003000017216520220010024978000000000192165000000000192165                 
C00050004000017216510411381900000011001126640000004270                          
D07000001000001818020220010039224000000000018180000000000018180                 
E070000020000018180                                                             
D07000003000001582220201123901552000000000015822000000000015822                 
E070000040000015822                                                             
D07500001000001839220221136924990000000000018392000000000018392                 
E075000020000018392                                                             
D07500003000001981020221131285379000000000019810000000000059430                 
E075000040000019810                                                             
D07500005000000791020220010013356000000000007910000000000007910                 
E075000060000007910                                                             
D07500007000000205020221125480375000000000002050000000000002050                 
E075000080000002050                                                             
D07500009000000646520220010039385000000000006465000000000004285                 
E075000100000006465                                                             
D08470001000000744920221136562370000000000021829000000000007240                 
D08470002000000207020221136711915000000000004140000000000002070                 
C08470003000000951904411509000000010997202800000501372                          
D08480001000000509720221137017473000000000000000000000000000000                 
C08480002000000509706111284300000020151526690000088496                          
D08480003000000785020221126637199000000000000000000000000000000                 
C08480004000000785012114432400000002010005510000007549                          
D08480005000000785020221126637199000000000000000000000000000000                 
C08480006000000785012114432400000002010077130000003260                          
D08480007000000731020221124883042000000000000000000000000000000                 
C08480008000000731006121208600000000070036250000002516                          
D08480009000001876120221136172142000000000000000000000000000000                 
C08480010000001876106120267200000001210077360000009238                          
D08480011000000449020220010000801000000000000000000000000000000                 
C08480012000000449004330682600000000074827280000025399                          
D08480013000002240720220010040900000000000000000000000000000000                 
C08480014000002240721127438200000040201648430000003588                          
D08480015000000270820221134985935000000000000000000000000000000                 
C08480016000000270812130101500000000210851030000019633                          
D08480017000001183220221139441308000000000000000000000000000000                 
C08480018000001183212130102800000000045648040000010431                          
D08480019000000288520220010025521000000000000000000000000000000                 
C08480020000000288504330685500000030015496110000004232                          
D08480021000000211820220010006375000000000000000000000000000000                 
C08480022000000211810491391200000070122498040000013474                          
D08480023000000511620220010028452000000000000000000000000000000                 
C08480024000000511606111341500000052410847540000975960                          
D08480025000000968020221000091407000000000000000000000000000000                 
C08480026000000968010490158400000020041322860000995365                          
D08480027000000442520220010022985000000000000000000000000000000                 
C08480028000000442504100012400000042273362520000007372                          
D09000001000000294020221132087247000000000000000000000000000000                 
D09000002000000370520220010044119000000000000000000000000000000                 
C09000003000000664508290043200000000013004580000346232                          
D09010001000001931120221125119826000000000000000000000000000000                 
C09010002000001931124337421800000007942006340000004716                          
T00109200000008447854                                                           
